<svg xmlns="http://www.w3.org/2000/svg" viewBox="1325.862 139 394.276 239.818">
  <defs>
    <style>
      .cls-1, .cls-5 {
        opacity: 0.57;
      }

      .cls-2 {
        fill: rgba(187,222,251,0.27);
      }

      .cls-2, .cls-3, .cls-4, .cls-5 {
        stroke: #90caf9;
      }

      .cls-10, .cls-11, .cls-2, .cls-4, .cls-5 {
        stroke-width: 3px;
      }

      .cls-3 {
        fill: #c5e4fa;
      }

      .cls-10, .cls-13, .cls-4, .cls-5 {
        fill: none;
      }

      .cls-6 {
        fill: #8d6c9f;
      }

      .cls-7 {
        fill: #fff;
      }

      .cls-8 {
        fill: #e3f2ff;
      }

      .cls-9 {
        fill: #acb7d0;
      }

      .cls-10, .cls-11 {
        stroke: #8d6c9f;
      }

      .cls-11 {
        fill: #f9e3ae;
      }

      .cls-12 {
        stroke: none;
      }
    </style>
  </defs>
  <g id="Group_28" data-name="Group 28" transform="translate(1335)">
    <g id="Group_17" data-name="Group 17" class="cls-1" transform="translate(11.862 8)">
      <g id="Group_1" data-name="Group 1" transform="translate(34 250)">
        <g id="Rectangle_3" data-name="Rectangle 3" class="cls-2">
          <rect class="cls-12" width="44.897" height="21"/>
          <rect class="cls-13" x="1.5" y="1.5" width="41.897" height="18"/>
        </g>
        <g id="Ellipse_5" data-name="Ellipse 5" class="cls-3" transform="translate(3.621 3.621)">
          <circle class="cls-12" cx="1.81" cy="1.81" r="1.81"/>
          <circle class="cls-13" cx="1.81" cy="1.81" r="1.31"/>
        </g>
        <g id="Ellipse_6" data-name="Ellipse 6" class="cls-3" transform="translate(37.655 3.621)">
          <circle class="cls-12" cx="1.81" cy="1.81" r="1.81"/>
          <circle class="cls-13" cx="1.81" cy="1.81" r="1.31"/>
        </g>
        <g id="Ellipse_7" data-name="Ellipse 7" class="cls-3" transform="translate(37.655 13.759)">
          <circle class="cls-12" cx="1.81" cy="1.81" r="1.81"/>
          <circle class="cls-13" cx="1.81" cy="1.81" r="1.31"/>
        </g>
        <g id="Ellipse_8" data-name="Ellipse 8" class="cls-3" transform="translate(3.621 13.759)">
          <circle class="cls-12" cx="1.81" cy="1.81" r="1.81"/>
          <circle class="cls-13" cx="1.81" cy="1.81" r="1.31"/>
        </g>
      </g>
      <g id="Group_2" data-name="Group 2" transform="translate(51.379 271)">
        <g id="Rectangle_3-2" data-name="Rectangle 3" class="cls-2">
          <rect class="cls-12" width="44.897" height="21"/>
          <rect class="cls-13" x="1.5" y="1.5" width="41.897" height="18"/>
        </g>
        <g id="Ellipse_5-2" data-name="Ellipse 5" class="cls-3" transform="translate(3.621 3.621)">
          <circle class="cls-12" cx="1.81" cy="1.81" r="1.81"/>
          <circle class="cls-13" cx="1.81" cy="1.81" r="1.31"/>
        </g>
        <g id="Ellipse_6-2" data-name="Ellipse 6" class="cls-3" transform="translate(37.655 3.621)">
          <circle class="cls-12" cx="1.81" cy="1.81" r="1.81"/>
          <circle class="cls-13" cx="1.81" cy="1.81" r="1.31"/>
        </g>
        <g id="Ellipse_7-2" data-name="Ellipse 7" class="cls-3" transform="translate(37.655 13.759)">
          <circle class="cls-12" cx="1.81" cy="1.81" r="1.81"/>
          <circle class="cls-13" cx="1.81" cy="1.81" r="1.31"/>
        </g>
        <g id="Ellipse_8-2" data-name="Ellipse 8" class="cls-3" transform="translate(3.621 13.759)">
          <circle class="cls-12" cx="1.81" cy="1.81" r="1.81"/>
          <circle class="cls-13" cx="1.81" cy="1.81" r="1.31"/>
        </g>
      </g>
    </g>
    <g id="Group_19" data-name="Group 19" class="cls-1" transform="translate(288.862 -64)">
      <g id="Group_1-2" data-name="Group 1" transform="translate(34 250)">
        <g id="Rectangle_3-3" data-name="Rectangle 3" class="cls-2">
          <rect class="cls-12" width="44.897" height="21"/>
          <rect class="cls-13" x="1.5" y="1.5" width="41.897" height="18"/>
        </g>
        <g id="Ellipse_5-3" data-name="Ellipse 5" class="cls-3" transform="translate(3.621 3.621)">
          <circle class="cls-12" cx="1.81" cy="1.81" r="1.81"/>
          <circle class="cls-13" cx="1.81" cy="1.81" r="1.31"/>
        </g>
        <g id="Ellipse_6-3" data-name="Ellipse 6" class="cls-3" transform="translate(37.655 3.621)">
          <circle class="cls-12" cx="1.81" cy="1.81" r="1.81"/>
          <circle class="cls-13" cx="1.81" cy="1.81" r="1.31"/>
        </g>
        <g id="Ellipse_7-3" data-name="Ellipse 7" class="cls-3" transform="translate(37.655 13.759)">
          <circle class="cls-12" cx="1.81" cy="1.81" r="1.81"/>
          <circle class="cls-13" cx="1.81" cy="1.81" r="1.31"/>
        </g>
        <g id="Ellipse_8-3" data-name="Ellipse 8" class="cls-3" transform="translate(3.621 13.759)">
          <circle class="cls-12" cx="1.81" cy="1.81" r="1.81"/>
          <circle class="cls-13" cx="1.81" cy="1.81" r="1.31"/>
        </g>
      </g>
      <g id="Group_2-2" data-name="Group 2" transform="translate(51.379 271)">
        <g id="Rectangle_3-4" data-name="Rectangle 3" class="cls-2">
          <rect class="cls-12" width="44.897" height="21"/>
          <rect class="cls-13" x="1.5" y="1.5" width="41.897" height="18"/>
        </g>
        <g id="Ellipse_5-4" data-name="Ellipse 5" class="cls-3" transform="translate(3.621 3.621)">
          <circle class="cls-12" cx="1.81" cy="1.81" r="1.81"/>
          <circle class="cls-13" cx="1.81" cy="1.81" r="1.31"/>
        </g>
        <g id="Ellipse_6-4" data-name="Ellipse 6" class="cls-3" transform="translate(37.655 3.621)">
          <circle class="cls-12" cx="1.81" cy="1.81" r="1.81"/>
          <circle class="cls-13" cx="1.81" cy="1.81" r="1.31"/>
        </g>
        <g id="Ellipse_7-4" data-name="Ellipse 7" class="cls-3" transform="translate(37.655 13.759)">
          <circle class="cls-12" cx="1.81" cy="1.81" r="1.81"/>
          <circle class="cls-13" cx="1.81" cy="1.81" r="1.31"/>
        </g>
        <g id="Ellipse_8-4" data-name="Ellipse 8" class="cls-3" transform="translate(3.621 13.759)">
          <circle class="cls-12" cx="1.81" cy="1.81" r="1.81"/>
          <circle class="cls-13" cx="1.81" cy="1.81" r="1.31"/>
        </g>
      </g>
    </g>
    <g id="Group_20" data-name="Group 20" class="cls-1" transform="translate(260.862 323)">
      <g id="Rectangle_3-5" data-name="Rectangle 3" class="cls-2">
        <rect class="cls-12" width="44.897" height="21"/>
        <rect class="cls-13" x="1.5" y="1.5" width="41.897" height="18"/>
      </g>
      <g id="Ellipse_5-5" data-name="Ellipse 5" class="cls-3" transform="translate(3.621 3.621)">
        <circle class="cls-12" cx="1.81" cy="1.81" r="1.81"/>
        <circle class="cls-13" cx="1.81" cy="1.81" r="1.31"/>
      </g>
      <g id="Ellipse_6-5" data-name="Ellipse 6" class="cls-3" transform="translate(37.655 3.621)">
        <circle class="cls-12" cx="1.81" cy="1.81" r="1.81"/>
        <circle class="cls-13" cx="1.81" cy="1.81" r="1.31"/>
      </g>
      <g id="Ellipse_7-5" data-name="Ellipse 7" class="cls-3" transform="translate(37.655 13.759)">
        <circle class="cls-12" cx="1.81" cy="1.81" r="1.81"/>
        <circle class="cls-13" cx="1.81" cy="1.81" r="1.31"/>
      </g>
      <g id="Ellipse_8-5" data-name="Ellipse 8" class="cls-3" transform="translate(3.621 13.759)">
        <circle class="cls-12" cx="1.81" cy="1.81" r="1.81"/>
        <circle class="cls-13" cx="1.81" cy="1.81" r="1.31"/>
      </g>
    </g>
    <g id="Group_21" data-name="Group 21" class="cls-1" transform="translate(277.862 303)">
      <g id="Rectangle_3-6" data-name="Rectangle 3" class="cls-2">
        <rect class="cls-12" width="44.897" height="21"/>
        <rect class="cls-13" x="1.5" y="1.5" width="41.897" height="18"/>
      </g>
      <g id="Ellipse_5-6" data-name="Ellipse 5" class="cls-3" transform="translate(3.621 3.621)">
        <circle class="cls-12" cx="1.81" cy="1.81" r="1.81"/>
        <circle class="cls-13" cx="1.81" cy="1.81" r="1.31"/>
      </g>
      <g id="Ellipse_6-6" data-name="Ellipse 6" class="cls-3" transform="translate(37.655 3.621)">
        <circle class="cls-12" cx="1.81" cy="1.81" r="1.81"/>
        <circle class="cls-13" cx="1.81" cy="1.81" r="1.31"/>
      </g>
      <g id="Ellipse_7-6" data-name="Ellipse 7" class="cls-3" transform="translate(37.655 13.759)">
        <circle class="cls-12" cx="1.81" cy="1.81" r="1.81"/>
        <circle class="cls-13" cx="1.81" cy="1.81" r="1.31"/>
      </g>
      <g id="Ellipse_8-6" data-name="Ellipse 8" class="cls-3" transform="translate(3.621 13.759)">
        <circle class="cls-12" cx="1.81" cy="1.81" r="1.81"/>
        <circle class="cls-13" cx="1.81" cy="1.81" r="1.31"/>
      </g>
    </g>
    <g id="Group_22" data-name="Group 22" class="cls-1" transform="translate(278.241 344)">
      <g id="Rectangle_3-7" data-name="Rectangle 3" class="cls-2">
        <rect class="cls-12" width="44.897" height="21"/>
        <rect class="cls-13" x="1.5" y="1.5" width="41.897" height="18"/>
      </g>
      <g id="Ellipse_5-7" data-name="Ellipse 5" class="cls-3" transform="translate(3.621 3.621)">
        <circle class="cls-12" cx="1.81" cy="1.81" r="1.81"/>
        <circle class="cls-13" cx="1.81" cy="1.81" r="1.31"/>
      </g>
      <g id="Ellipse_6-7" data-name="Ellipse 6" class="cls-3" transform="translate(37.655 3.621)">
        <circle class="cls-12" cx="1.81" cy="1.81" r="1.81"/>
        <circle class="cls-13" cx="1.81" cy="1.81" r="1.31"/>
      </g>
      <g id="Ellipse_7-7" data-name="Ellipse 7" class="cls-3" transform="translate(37.655 13.759)">
        <circle class="cls-12" cx="1.81" cy="1.81" r="1.81"/>
        <circle class="cls-13" cx="1.81" cy="1.81" r="1.31"/>
      </g>
      <g id="Ellipse_8-7" data-name="Ellipse 8" class="cls-3" transform="translate(3.621 13.759)">
        <circle class="cls-12" cx="1.81" cy="1.81" r="1.81"/>
        <circle class="cls-13" cx="1.81" cy="1.81" r="1.31"/>
      </g>
    </g>
    <g id="Group_23" data-name="Group 23" class="cls-1">
      <g id="Group_1-3" data-name="Group 1" transform="translate(-9.138 139)">
        <g id="Rectangle_3-8" data-name="Rectangle 3" class="cls-2">
          <rect class="cls-12" width="44.897" height="21"/>
          <rect class="cls-13" x="1.5" y="1.5" width="41.897" height="18"/>
        </g>
        <g id="Ellipse_5-8" data-name="Ellipse 5" class="cls-3" transform="translate(3.621 3.621)">
          <circle class="cls-12" cx="1.81" cy="1.81" r="1.81"/>
          <circle class="cls-13" cx="1.81" cy="1.81" r="1.31"/>
        </g>
        <g id="Ellipse_6-8" data-name="Ellipse 6" class="cls-3" transform="translate(37.655 3.621)">
          <circle class="cls-12" cx="1.81" cy="1.81" r="1.81"/>
          <circle class="cls-13" cx="1.81" cy="1.81" r="1.31"/>
        </g>
        <g id="Ellipse_7-8" data-name="Ellipse 7" class="cls-3" transform="translate(37.655 13.759)">
          <circle class="cls-12" cx="1.81" cy="1.81" r="1.81"/>
          <circle class="cls-13" cx="1.81" cy="1.81" r="1.31"/>
        </g>
        <g id="Ellipse_8-8" data-name="Ellipse 8" class="cls-3" transform="translate(3.621 13.759)">
          <circle class="cls-12" cx="1.81" cy="1.81" r="1.81"/>
          <circle class="cls-13" cx="1.81" cy="1.81" r="1.31"/>
        </g>
      </g>
      <g id="Group_2-3" data-name="Group 2" transform="translate(8.241 160)">
        <g id="Rectangle_3-9" data-name="Rectangle 3" class="cls-2">
          <rect class="cls-12" width="44.897" height="21"/>
          <rect class="cls-13" x="1.5" y="1.5" width="41.897" height="18"/>
        </g>
        <g id="Ellipse_5-9" data-name="Ellipse 5" class="cls-3" transform="translate(3.621 3.621)">
          <circle class="cls-12" cx="1.81" cy="1.81" r="1.81"/>
          <circle class="cls-13" cx="1.81" cy="1.81" r="1.31"/>
        </g>
        <g id="Ellipse_6-9" data-name="Ellipse 6" class="cls-3" transform="translate(37.655 3.621)">
          <circle class="cls-12" cx="1.81" cy="1.81" r="1.81"/>
          <circle class="cls-13" cx="1.81" cy="1.81" r="1.31"/>
        </g>
        <g id="Ellipse_7-9" data-name="Ellipse 7" class="cls-3" transform="translate(37.655 13.759)">
          <circle class="cls-12" cx="1.81" cy="1.81" r="1.81"/>
          <circle class="cls-13" cx="1.81" cy="1.81" r="1.31"/>
        </g>
        <g id="Ellipse_8-9" data-name="Ellipse 8" class="cls-3" transform="translate(3.621 13.759)">
          <circle class="cls-12" cx="1.81" cy="1.81" r="1.81"/>
          <circle class="cls-13" cx="1.81" cy="1.81" r="1.31"/>
        </g>
      </g>
      <path id="Path_3" data-name="Path 3" class="cls-4" d="M53.138,166.1H59.3"/>
      <path id="Path_4" data-name="Path 4" class="cls-4" d="M53.138,166.2H58" transform="translate(-1 5.9)"/>
    </g>
    <path id="Path_26" data-name="Path 26" class="cls-5" d="M322.759,308.9H332.4"/>
    <path id="Path_27" data-name="Path 27" class="cls-5" d="M322.759,308.9h4.821" transform="translate(0 8)"/>
    <path id="Path_28" data-name="Path 28" class="cls-5" d="M260.862,330.2H252.8"/>
    <path id="Path_29" data-name="Path 29" class="cls-5" d="M256.831,330.2H252.8" transform="translate(4.031 7)"/>
    <rect id="Rectangle_20" data-name="Rectangle 20" class="cls-6" width="9" height="4" rx="2" transform="translate(259.623 239.318) rotate(-16)"/>
    <rect id="Rectangle_21" data-name="Rectangle 21" class="cls-6" width="12" height="4" rx="2" transform="translate(263.036 253.887) rotate(1)"/>
    <rect id="Rectangle_22" data-name="Rectangle 22" class="cls-6" width="10" height="4" rx="2" transform="translate(260.67 266.759) rotate(30)"/>
    <rect id="Rectangle_35" data-name="Rectangle 35" class="cls-7" width="3" height="7" transform="translate(135.72 371.3) rotate(14)"/>
    <rect id="Rectangle_37" data-name="Rectangle 37" class="cls-7" width="3" height="7" transform="translate(124.105 356.691) rotate(51)"/>
    <rect id="Rectangle_39" data-name="Rectangle 39" class="cls-7" width="3" height="7" transform="translate(114.105 335.691) rotate(51)"/>
    <rect id="Rectangle_40" data-name="Rectangle 40" class="cls-7" width="3" height="7" transform="translate(98.014 327.485) rotate(3)"/>
    <rect id="Rectangle_42" data-name="Rectangle 42" class="cls-7" width="3" height="7" transform="translate(80.722 332.283) rotate(-20)"/>
    <g id="Group_27" data-name="Group 27" transform="translate(-10 -4)">
      <path id="Path_36" data-name="Path 36" class="cls-8" d="M1531,254.6l-49.451,49.451V313.6l59-59Z" transform="translate(-1335)"/>
      <path id="Path_37" data-name="Path 37" class="cls-8" d="M1549.1,261.7l-67.5,65.5v11.6l67.5-67.5Z" transform="translate(-1335)"/>
      <path id="Rectangle_52" data-name="Rectangle 52" class="cls-9" d="M8,0H59a8,8,0,0,1,8,8v7a0,0,0,0,1,0,0H0a0,0,0,0,1,0,0V8A8,8,0,0,1,8,0Z" transform="translate(147 238)"/>
      <path id="Rectangle_53" data-name="Rectangle 53" class="cls-9" d="M0,0H68a0,0,0,0,1,0,0V9A10,10,0,0,1,58,19H10A10,10,0,0,1,0,9V0A0,0,0,0,1,0,0Z" transform="translate(147 342)"/>
      <g id="Rectangle_43" data-name="Rectangle 43" class="cls-10" transform="translate(144 235)">
        <rect class="cls-12" width="73" height="128" rx="12"/>
        <rect class="cls-13" x="1.5" y="1.5" width="70" height="125" rx="10.5"/>
      </g>
      <path id="Path_33" data-name="Path 33" class="cls-10" d="M1481.3,252H1549" transform="translate(-1335 1)"/>
      <path id="Path_34" data-name="Path 34" class="cls-10" d="M1481.5,340.7h67.6" transform="translate(-1335)"/>
      <circle id="Ellipse_26" data-name="Ellipse 26" class="cls-6" cx="5" cy="5" r="5" transform="translate(175 346)"/>
      <rect id="Rectangle_44" data-name="Rectangle 44" class="cls-6" width="9" height="4" rx="2" transform="translate(167 243)"/>
      <rect id="Rectangle_45" data-name="Rectangle 45" class="cls-6" width="12" height="4" rx="2" transform="translate(180 243)"/>
      <path id="Union_1" data-name="Union 1" class="cls-11" d="M-1317.8,54.5H-1328a5.5,5.5,0,0,1-5.5-5.5V7a5.5,5.5,0,0,1,5.5-5.5h50a5.5,5.5,0,0,1,5.5,5.5V49a5.5,5.5,0,0,1-5.5,5.5h-24.3L-1317.8,70Z" transform="translate(1523 263)"/>
      <rect id="Rectangle_47" data-name="Rectangle 47" class="cls-6" width="4" height="8" rx="2" transform="translate(154 323)"/>
      <rect id="Rectangle_48" data-name="Rectangle 48" class="cls-6" width="4" height="8" rx="2" transform="translate(164 323)"/>
      <rect id="Rectangle_49" data-name="Rectangle 49" class="cls-6" width="4" height="8" rx="2" transform="translate(174 323)"/>
      <rect id="Rectangle_50" data-name="Rectangle 50" class="cls-6" width="4" height="8" rx="2" transform="translate(184 323)"/>
      <rect id="Rectangle_51" data-name="Rectangle 51" class="cls-6" width="4" height="8" rx="2" transform="translate(194 323)"/>
    </g>
  </g>
</svg>
