<svg xmlns="http://www.w3.org/2000/svg" viewBox="880.862 139 394.276 243.851">
  <defs>
    <style>
      .cls-1, .cls-5 {
        opacity: 0.57;
      }

      .cls-2 {
        fill: rgba(187,222,251,0.27);
      }

      .cls-2, .cls-3, .cls-4, .cls-5 {
        stroke: #90caf9;
      }

      .cls-10, .cls-2, .cls-4, .cls-5, .cls-6 {
        stroke-width: 3px;
      }

      .cls-3 {
        fill: #c5e4fa;
      }

      .cls-10, .cls-13, .cls-4, .cls-5 {
        fill: none;
      }

      .cls-6 {
        fill: rgba(172,183,208,0.58);
      }

      .cls-10, .cls-6, .cls-7, .cls-8 {
        stroke: #8d6c9f;
      }

      .cls-11, .cls-7 {
        fill: #fff;
      }

      .cls-7, .cls-8 {
        stroke-width: 2px;
      }

      .cls-8 {
        fill: #f9e3ae;
      }

      .cls-9 {
        fill: #8d6c9f;
      }

      .cls-12 {
        stroke: none;
      }
    </style>
  </defs>
  <g id="Group_26" data-name="Group 26" transform="translate(890)">
    <g id="Group_17" data-name="Group 17" class="cls-1" transform="translate(11.862 8)">
      <g id="Group_1" data-name="Group 1" transform="translate(34 250)">
        <g id="Rectangle_3" data-name="Rectangle 3" class="cls-2">
          <rect class="cls-12" width="44.897" height="21"/>
          <rect class="cls-13" x="1.5" y="1.5" width="41.897" height="18"/>
        </g>
        <g id="Ellipse_5" data-name="Ellipse 5" class="cls-3" transform="translate(3.621 3.621)">
          <circle class="cls-12" cx="1.81" cy="1.81" r="1.81"/>
          <circle class="cls-13" cx="1.81" cy="1.81" r="1.31"/>
        </g>
        <g id="Ellipse_6" data-name="Ellipse 6" class="cls-3" transform="translate(37.655 3.621)">
          <circle class="cls-12" cx="1.81" cy="1.81" r="1.81"/>
          <circle class="cls-13" cx="1.81" cy="1.81" r="1.31"/>
        </g>
        <g id="Ellipse_7" data-name="Ellipse 7" class="cls-3" transform="translate(37.655 13.759)">
          <circle class="cls-12" cx="1.81" cy="1.81" r="1.81"/>
          <circle class="cls-13" cx="1.81" cy="1.81" r="1.31"/>
        </g>
        <g id="Ellipse_8" data-name="Ellipse 8" class="cls-3" transform="translate(3.621 13.759)">
          <circle class="cls-12" cx="1.81" cy="1.81" r="1.81"/>
          <circle class="cls-13" cx="1.81" cy="1.81" r="1.31"/>
        </g>
      </g>
      <g id="Group_2" data-name="Group 2" transform="translate(51.379 271)">
        <g id="Rectangle_3-2" data-name="Rectangle 3" class="cls-2">
          <rect class="cls-12" width="44.897" height="21"/>
          <rect class="cls-13" x="1.5" y="1.5" width="41.897" height="18"/>
        </g>
        <g id="Ellipse_5-2" data-name="Ellipse 5" class="cls-3" transform="translate(3.621 3.621)">
          <circle class="cls-12" cx="1.81" cy="1.81" r="1.81"/>
          <circle class="cls-13" cx="1.81" cy="1.81" r="1.31"/>
        </g>
        <g id="Ellipse_6-2" data-name="Ellipse 6" class="cls-3" transform="translate(37.655 3.621)">
          <circle class="cls-12" cx="1.81" cy="1.81" r="1.81"/>
          <circle class="cls-13" cx="1.81" cy="1.81" r="1.31"/>
        </g>
        <g id="Ellipse_7-2" data-name="Ellipse 7" class="cls-3" transform="translate(37.655 13.759)">
          <circle class="cls-12" cx="1.81" cy="1.81" r="1.81"/>
          <circle class="cls-13" cx="1.81" cy="1.81" r="1.31"/>
        </g>
        <g id="Ellipse_8-2" data-name="Ellipse 8" class="cls-3" transform="translate(3.621 13.759)">
          <circle class="cls-12" cx="1.81" cy="1.81" r="1.81"/>
          <circle class="cls-13" cx="1.81" cy="1.81" r="1.31"/>
        </g>
      </g>
    </g>
    <g id="Group_19" data-name="Group 19" class="cls-1" transform="translate(288.862 -64)">
      <g id="Group_1-2" data-name="Group 1" transform="translate(34 250)">
        <g id="Rectangle_3-3" data-name="Rectangle 3" class="cls-2">
          <rect class="cls-12" width="44.897" height="21"/>
          <rect class="cls-13" x="1.5" y="1.5" width="41.897" height="18"/>
        </g>
        <g id="Ellipse_5-3" data-name="Ellipse 5" class="cls-3" transform="translate(3.621 3.621)">
          <circle class="cls-12" cx="1.81" cy="1.81" r="1.81"/>
          <circle class="cls-13" cx="1.81" cy="1.81" r="1.31"/>
        </g>
        <g id="Ellipse_6-3" data-name="Ellipse 6" class="cls-3" transform="translate(37.655 3.621)">
          <circle class="cls-12" cx="1.81" cy="1.81" r="1.81"/>
          <circle class="cls-13" cx="1.81" cy="1.81" r="1.31"/>
        </g>
        <g id="Ellipse_7-3" data-name="Ellipse 7" class="cls-3" transform="translate(37.655 13.759)">
          <circle class="cls-12" cx="1.81" cy="1.81" r="1.81"/>
          <circle class="cls-13" cx="1.81" cy="1.81" r="1.31"/>
        </g>
        <g id="Ellipse_8-3" data-name="Ellipse 8" class="cls-3" transform="translate(3.621 13.759)">
          <circle class="cls-12" cx="1.81" cy="1.81" r="1.81"/>
          <circle class="cls-13" cx="1.81" cy="1.81" r="1.31"/>
        </g>
      </g>
      <g id="Group_2-2" data-name="Group 2" transform="translate(51.379 271)">
        <g id="Rectangle_3-4" data-name="Rectangle 3" class="cls-2">
          <rect class="cls-12" width="44.897" height="21"/>
          <rect class="cls-13" x="1.5" y="1.5" width="41.897" height="18"/>
        </g>
        <g id="Ellipse_5-4" data-name="Ellipse 5" class="cls-3" transform="translate(3.621 3.621)">
          <circle class="cls-12" cx="1.81" cy="1.81" r="1.81"/>
          <circle class="cls-13" cx="1.81" cy="1.81" r="1.31"/>
        </g>
        <g id="Ellipse_6-4" data-name="Ellipse 6" class="cls-3" transform="translate(37.655 3.621)">
          <circle class="cls-12" cx="1.81" cy="1.81" r="1.81"/>
          <circle class="cls-13" cx="1.81" cy="1.81" r="1.31"/>
        </g>
        <g id="Ellipse_7-4" data-name="Ellipse 7" class="cls-3" transform="translate(37.655 13.759)">
          <circle class="cls-12" cx="1.81" cy="1.81" r="1.81"/>
          <circle class="cls-13" cx="1.81" cy="1.81" r="1.31"/>
        </g>
        <g id="Ellipse_8-4" data-name="Ellipse 8" class="cls-3" transform="translate(3.621 13.759)">
          <circle class="cls-12" cx="1.81" cy="1.81" r="1.81"/>
          <circle class="cls-13" cx="1.81" cy="1.81" r="1.31"/>
        </g>
      </g>
    </g>
    <g id="Group_20" data-name="Group 20" class="cls-1" transform="translate(260.862 323)">
      <g id="Rectangle_3-5" data-name="Rectangle 3" class="cls-2">
        <rect class="cls-12" width="44.897" height="21"/>
        <rect class="cls-13" x="1.5" y="1.5" width="41.897" height="18"/>
      </g>
      <g id="Ellipse_5-5" data-name="Ellipse 5" class="cls-3" transform="translate(3.621 3.621)">
        <circle class="cls-12" cx="1.81" cy="1.81" r="1.81"/>
        <circle class="cls-13" cx="1.81" cy="1.81" r="1.31"/>
      </g>
      <g id="Ellipse_6-5" data-name="Ellipse 6" class="cls-3" transform="translate(37.655 3.621)">
        <circle class="cls-12" cx="1.81" cy="1.81" r="1.81"/>
        <circle class="cls-13" cx="1.81" cy="1.81" r="1.31"/>
      </g>
      <g id="Ellipse_7-5" data-name="Ellipse 7" class="cls-3" transform="translate(37.655 13.759)">
        <circle class="cls-12" cx="1.81" cy="1.81" r="1.81"/>
        <circle class="cls-13" cx="1.81" cy="1.81" r="1.31"/>
      </g>
      <g id="Ellipse_8-5" data-name="Ellipse 8" class="cls-3" transform="translate(3.621 13.759)">
        <circle class="cls-12" cx="1.81" cy="1.81" r="1.81"/>
        <circle class="cls-13" cx="1.81" cy="1.81" r="1.31"/>
      </g>
    </g>
    <g id="Group_21" data-name="Group 21" class="cls-1" transform="translate(277.862 303)">
      <g id="Rectangle_3-6" data-name="Rectangle 3" class="cls-2">
        <rect class="cls-12" width="44.897" height="21"/>
        <rect class="cls-13" x="1.5" y="1.5" width="41.897" height="18"/>
      </g>
      <g id="Ellipse_5-6" data-name="Ellipse 5" class="cls-3" transform="translate(3.621 3.621)">
        <circle class="cls-12" cx="1.81" cy="1.81" r="1.81"/>
        <circle class="cls-13" cx="1.81" cy="1.81" r="1.31"/>
      </g>
      <g id="Ellipse_6-6" data-name="Ellipse 6" class="cls-3" transform="translate(37.655 3.621)">
        <circle class="cls-12" cx="1.81" cy="1.81" r="1.81"/>
        <circle class="cls-13" cx="1.81" cy="1.81" r="1.31"/>
      </g>
      <g id="Ellipse_7-6" data-name="Ellipse 7" class="cls-3" transform="translate(37.655 13.759)">
        <circle class="cls-12" cx="1.81" cy="1.81" r="1.81"/>
        <circle class="cls-13" cx="1.81" cy="1.81" r="1.31"/>
      </g>
      <g id="Ellipse_8-6" data-name="Ellipse 8" class="cls-3" transform="translate(3.621 13.759)">
        <circle class="cls-12" cx="1.81" cy="1.81" r="1.81"/>
        <circle class="cls-13" cx="1.81" cy="1.81" r="1.31"/>
      </g>
    </g>
    <g id="Group_22" data-name="Group 22" class="cls-1" transform="translate(278.241 344)">
      <g id="Rectangle_3-7" data-name="Rectangle 3" class="cls-2">
        <rect class="cls-12" width="44.897" height="21"/>
        <rect class="cls-13" x="1.5" y="1.5" width="41.897" height="18"/>
      </g>
      <g id="Ellipse_5-7" data-name="Ellipse 5" class="cls-3" transform="translate(3.621 3.621)">
        <circle class="cls-12" cx="1.81" cy="1.81" r="1.81"/>
        <circle class="cls-13" cx="1.81" cy="1.81" r="1.31"/>
      </g>
      <g id="Ellipse_6-7" data-name="Ellipse 6" class="cls-3" transform="translate(37.655 3.621)">
        <circle class="cls-12" cx="1.81" cy="1.81" r="1.81"/>
        <circle class="cls-13" cx="1.81" cy="1.81" r="1.31"/>
      </g>
      <g id="Ellipse_7-7" data-name="Ellipse 7" class="cls-3" transform="translate(37.655 13.759)">
        <circle class="cls-12" cx="1.81" cy="1.81" r="1.81"/>
        <circle class="cls-13" cx="1.81" cy="1.81" r="1.31"/>
      </g>
      <g id="Ellipse_8-7" data-name="Ellipse 8" class="cls-3" transform="translate(3.621 13.759)">
        <circle class="cls-12" cx="1.81" cy="1.81" r="1.81"/>
        <circle class="cls-13" cx="1.81" cy="1.81" r="1.31"/>
      </g>
    </g>
    <g id="Group_23" data-name="Group 23" class="cls-1">
      <g id="Group_1-3" data-name="Group 1" transform="translate(-9.138 139)">
        <g id="Rectangle_3-8" data-name="Rectangle 3" class="cls-2">
          <rect class="cls-12" width="44.897" height="21"/>
          <rect class="cls-13" x="1.5" y="1.5" width="41.897" height="18"/>
        </g>
        <g id="Ellipse_5-8" data-name="Ellipse 5" class="cls-3" transform="translate(3.621 3.621)">
          <circle class="cls-12" cx="1.81" cy="1.81" r="1.81"/>
          <circle class="cls-13" cx="1.81" cy="1.81" r="1.31"/>
        </g>
        <g id="Ellipse_6-8" data-name="Ellipse 6" class="cls-3" transform="translate(37.655 3.621)">
          <circle class="cls-12" cx="1.81" cy="1.81" r="1.81"/>
          <circle class="cls-13" cx="1.81" cy="1.81" r="1.31"/>
        </g>
        <g id="Ellipse_7-8" data-name="Ellipse 7" class="cls-3" transform="translate(37.655 13.759)">
          <circle class="cls-12" cx="1.81" cy="1.81" r="1.81"/>
          <circle class="cls-13" cx="1.81" cy="1.81" r="1.31"/>
        </g>
        <g id="Ellipse_8-8" data-name="Ellipse 8" class="cls-3" transform="translate(3.621 13.759)">
          <circle class="cls-12" cx="1.81" cy="1.81" r="1.81"/>
          <circle class="cls-13" cx="1.81" cy="1.81" r="1.31"/>
        </g>
      </g>
      <g id="Group_2-3" data-name="Group 2" transform="translate(8.241 160)">
        <g id="Rectangle_3-9" data-name="Rectangle 3" class="cls-2">
          <rect class="cls-12" width="44.897" height="21"/>
          <rect class="cls-13" x="1.5" y="1.5" width="41.897" height="18"/>
        </g>
        <g id="Ellipse_5-9" data-name="Ellipse 5" class="cls-3" transform="translate(3.621 3.621)">
          <circle class="cls-12" cx="1.81" cy="1.81" r="1.81"/>
          <circle class="cls-13" cx="1.81" cy="1.81" r="1.31"/>
        </g>
        <g id="Ellipse_6-9" data-name="Ellipse 6" class="cls-3" transform="translate(37.655 3.621)">
          <circle class="cls-12" cx="1.81" cy="1.81" r="1.81"/>
          <circle class="cls-13" cx="1.81" cy="1.81" r="1.31"/>
        </g>
        <g id="Ellipse_7-9" data-name="Ellipse 7" class="cls-3" transform="translate(37.655 13.759)">
          <circle class="cls-12" cx="1.81" cy="1.81" r="1.81"/>
          <circle class="cls-13" cx="1.81" cy="1.81" r="1.31"/>
        </g>
        <g id="Ellipse_8-9" data-name="Ellipse 8" class="cls-3" transform="translate(3.621 13.759)">
          <circle class="cls-12" cx="1.81" cy="1.81" r="1.81"/>
          <circle class="cls-13" cx="1.81" cy="1.81" r="1.31"/>
        </g>
      </g>
      <path id="Path_3" data-name="Path 3" class="cls-4" d="M53.138,166.1H59.3"/>
      <path id="Path_4" data-name="Path 4" class="cls-4" d="M53.138,166.2H58" transform="translate(-1 5.9)"/>
    </g>
    <path id="Path_26" data-name="Path 26" class="cls-5" d="M322.759,308.9H332.4"/>
    <path id="Path_27" data-name="Path 27" class="cls-5" d="M322.759,308.9h4.821" transform="translate(0 8)"/>
    <path id="Path_28" data-name="Path 28" class="cls-5" d="M260.862,330.2H252.8"/>
    <path id="Path_29" data-name="Path 29" class="cls-5" d="M256.831,330.2H252.8" transform="translate(4.031 7)"/>
    <path id="Path_31" data-name="Path 31" class="cls-6" d="M31.5,1.5a30,30,0,0,1,30,30c0,5.58-3.723,14.544-9.5,25.1-2.86,5.226-6.848,11.537-10.1,16.9C34.741,86.752,32,95.6,32,95.6a103.009,103.009,0,0,0-8.8-20.7C14.787,59.887,1.5,41.242,1.5,31.5A30,30,0,0,1,31.5,1.5Z" transform="translate(156 234)"/>
    <g id="Ellipse_24" data-name="Ellipse 24" class="cls-7" transform="translate(172 248)">
      <circle class="cls-12" cx="16.5" cy="16.5" r="16.5"/>
      <circle class="cls-13" cx="16.5" cy="16.5" r="15.5"/>
    </g>
    <g id="Ellipse_25" data-name="Ellipse 25" class="cls-8" transform="translate(180 256)">
      <circle class="cls-12" cx="8.5" cy="8.5" r="8.5"/>
      <circle class="cls-13" cx="8.5" cy="8.5" r="7.5"/>
    </g>
    <rect id="Rectangle_20" data-name="Rectangle 20" class="cls-9" width="9" height="4" rx="2" transform="translate(222.623 247.318) rotate(-16)"/>
    <rect id="Rectangle_21" data-name="Rectangle 21" class="cls-9" width="12" height="4" rx="2" transform="translate(226.036 261.887) rotate(1)"/>
    <rect id="Rectangle_22" data-name="Rectangle 22" class="cls-9" width="10" height="4" rx="2" transform="translate(223.67 274.759) rotate(30)"/>
    <rect id="Rectangle_23" data-name="Rectangle 23" class="cls-9" width="10" height="4" rx="2" transform="translate(143.619 279.198) rotate(-24)"/>
    <rect id="Rectangle_24" data-name="Rectangle 24" class="cls-9" width="13" height="4" rx="2" transform="translate(138.036 261.852) rotate(1)"/>
    <rect id="Rectangle_25" data-name="Rectangle 25" class="cls-9" width="10" height="4" rx="2" transform="matrix(0.934, 0.358, -0.358, 0.934, 144.949, 244.844)"/>
    <path id="Path_32" data-name="Path 32" class="cls-10" d="M1077.5,340.9a27.323,27.323,0,0,0-7.3-1.5c-5.559-.431-13.67.707-17.8,8.2-7,12.7,15.2,36.8-16.9,30.4s-23.2-49.2-47.6-47-24.8,9.9-24.8,9.9" transform="translate(-890)"/>
    <rect id="Rectangle_26" data-name="Rectangle 26" class="cls-11" width="3" height="5" transform="translate(180 337)"/>
    <rect id="Rectangle_28" data-name="Rectangle 28" class="cls-11" width="3" height="5" transform="matrix(0.978, -0.208, 0.208, 0.978, 165.513, 340.366)"/>
    <rect id="Rectangle_30" data-name="Rectangle 30" class="cls-11" width="3" height="7" transform="matrix(0.559, -0.829, 0.829, 0.559, 157.589, 354.346)"/>
    <rect id="Rectangle_32" data-name="Rectangle 32" class="cls-11" width="3" height="7" transform="translate(158.712 374.248) rotate(-85)"/>
    <rect id="Rectangle_33" data-name="Rectangle 33" class="cls-11" width="3" height="7" transform="translate(154.821 376.194) rotate(-18)"/>
    <rect id="Rectangle_35" data-name="Rectangle 35" class="cls-11" width="3" height="7" transform="translate(135.72 371.3) rotate(14)"/>
    <rect id="Rectangle_37" data-name="Rectangle 37" class="cls-11" width="3" height="7" transform="translate(124.105 356.691) rotate(51)"/>
    <rect id="Rectangle_39" data-name="Rectangle 39" class="cls-11" width="3" height="7" transform="translate(114.105 335.691) rotate(51)"/>
    <rect id="Rectangle_40" data-name="Rectangle 40" class="cls-11" width="3" height="7" transform="translate(98.014 327.485) rotate(3)"/>
    <rect id="Rectangle_42" data-name="Rectangle 42" class="cls-11" width="3" height="7" transform="translate(80.722 332.283) rotate(-20)"/>
  </g>
</svg>
